535755,2,3,4,10,6
519852,4,7,2,6,1
812068,6,1,4,33,2,7,32,5,9
109788,2,4,6,32,9
669472,2,4,6,9,32
541562,33,5,2,4,8
896367,32,2,7,6,8
98067,32,2,9,4,6,33,5,1,7
20836,8,6,32,7,2,3,33,9,10,4,1,5
22176,2,7,4,10,8,33,9,32,5,6,1
93444,4,6,2,32,9
83433,2,4,6,32,9,5,7,10,33,3,1,8
12704,5,3,4,2,1,10,7
62572,6,4,33,32,1,8,2,5,7,10,9,3
57236,32,6,5,2,10,4
50812,7,4,5,6,8,32,3,2,1,9,33,10
33650,2,32,1,4,6,9,5,33,7,8,3,10
88703,33,4,7,2,9,10,6,3,32,8,5,1
25960,9,32,4,2,6,1,5,33,7,8,3,10
639693,2,5,6,33,1,9,32,7,4
313261,4,7,32,1,2,9,33,6,5
326082,2,7,6,3,4,32,9,5,8,33,1,10
678484,32,6,2,9,4
452681,6,4,3,33,2,7,32,9,8,1,5,10
721878,3,7,9,5,8
431937,4,9,33,5,7,2,6,10,8,32,3,1
302374,9,1,2,4,33,3,6,5,32
625489,4,6,2,9,32,8,7,33,3,5
197525,4,2,32,5,7,1,9,33,8,6,3,10
299465,2,3,4,6,9,8,5
947413,5,9,7,2,4
330145,3,2,4,6,7,5,9,32,1,33
442468,32,6,9,4,33,7,3,5
805699,2,32,4,1,7,9,33,5,6,3,8
984589,6,2,4,9,32,7,33,3,1,8,5,10
672182,2,32,6,9,4,5,1,33,7
434072,2,32,4,6,9,7,33,1,5,8,3,10
433201,32,8,3,4,2
230127,2,4,6,32,9,33,7,8,5,1,3
396895,4,2,32,1,5,7,8,6,9,33,10,3
650949,4,32,2,6,7,1,8,5,9,33,3,10
274790,3,6,4,5,2,32,10
112753,8,4,2,5,32,9,6,7,1,3,33,10
757162,8,4,2,6,1,9,5,32,33,7,10,3
466773,32,2,4,6,9
483086,2,4,7,6,32,8,3,9,5,33,1,10
674254,2,4,6,32,8,7,9,1,33,5,3,10
707619,10,2,32,3,9,5,6,8
592103,4,6,9,32,2,7,1
514930,4,6,2,32,9,5,1,3,10,8,33,7
649071,2,4,32,7,10,6,5,8,3,1,33,9
909084,32,4,6,2,3,1,9,33,5,7,8,10
984804,2,9,4,32,6,7,3,33,5,8,1,10
820757,10,3,7,8,5,33,32
776443,9,4,2,32,6,7,3,1,33,5,8,10
330361,32,4,9,2,6,7,33,5,8,1,3
609349,32,6,10,3,2,7
306177,4,2,6,5,3,1,8,9,32,7,33,10
670493,5,32,2,9,6,4,1,33,7,3
927122,4,6,2,32,1,9,5,7
720460,2,4,32,9,6,5,33,7,1,3,8,10
761654,32,2,9,6,4,7,5,33,10,8,1,3
532340,32,4,5,2,1
679781,32,2,9,6,4,5,33,1,3,7,8,10
800402,4,9,2,1,8,6,32,3,7,5,33,10
502406,2,9,4,32,6,7,8,1,3,5,10,33
366430,6,4,9,2,32,8,33,3,10,7,5,1
839309,32,4,2,6,7,9
114482,1,33,7,6,10
972092,4,6,2,7,32,9,33,5,3
287097,5,6,32,8,2,9,1,4,3,7,33,10
466210,9,1,33,2,4
172997,9,1,33,2,4
150639,2,32,6,9,4,7,33
913231,2,4,6,9,32,1,3,5,7,33,8,10
817664,32,2,1,4,9,6,33,5,7,3,8
193868,2,6,9,4,3,8,10,33,7
871392,2,32,6,7,10,3,33,5,8,4,1,9
798237,2,3,5,4,6,32,33,7,1,10,9,8
856460,2,32,4,6,9,7,33,5,3,8,1,10
833791,4,2,9,6,32,7,33,1,5,8,3,10
784881,32,2,9,6,4,1,33,5,7,3,8,10
823381,2,32,4,6,9

1,Charles Davis
2,Darby Thomas
3,David Carlos Salaverry
4,Jennifer Snyder
5,Preston Rhea
6,Shannon Malloy
7,Dale Smith
8,Steven Monacelli
9,Teresa Pratt
10,Xavier Aubuchon-Mendoza
32,Alisha Foster
33,Ryan Moore
